^C:\USERS\MADMA\SOURCE\REPOS\OPENGL_LAB\OPENGL_LAB\DEBUG\SOURCE.OBJ
D:\WINDOWS KITS\10\LIB\10.0.18362.0\UM\X86\OPENGL32.LIB
D:\OPENGLBIBL\GLFW-3.3.4.BIN.WIN32\LIB-VC2019\GLFW3.LIB
D:\OPENGLBIBL\GLEW-2.1.0\LIB\RELEASE\WIN32\GLEW32S.LIB
D:\WINDOWS KITS\10\LIB\10.0.18362.0\UM\X86\KERNEL32.LIB
D:\WINDOWS KITS\10\LIB\10.0.18362.0\UM\X86\USER32.LIB
D:\WINDOWS KITS\10\LIB\10.0.18362.0\UM\X86\GDI32.LIB
D:\WINDOWS KITS\10\LIB\10.0.18362.0\UM\X86\WINSPOOL.LIB
D:\WINDOWS KITS\10\LIB\10.0.18362.0\UM\X86\COMDLG32.LIB
D:\WINDOWS KITS\10\LIB\10.0.18362.0\UM\X86\ADVAPI32.LIB
D:\WINDOWS KITS\10\LIB\10.0.18362.0\UM\X86\SHELL32.LIB
D:\WINDOWS KITS\10\LIB\10.0.18362.0\UM\X86\OLE32.LIB
D:\WINDOWS KITS\10\LIB\10.0.18362.0\UM\X86\OLEAUT32.LIB
D:\WINDOWS KITS\10\LIB\10.0.18362.0\UM\X86\UUID.LIB
D:\WINDOWS KITS\10\LIB\10.0.18362.0\UM\X86\ODBC32.LIB
D:\WINDOWS KITS\10\LIB\10.0.18362.0\UM\X86\ODBCCP32.LIB
C:\USERS\MADMA\SOURCE\REPOS\OPENGL_LAB\OPENGL_LAB\DEBUG\SOURCE.OBJ
C:\USERS\MADMA\SOURCE\REPOS\OPENGL_LAB\OPENGL_LAB\DEBUG\OPENGL_LAB.ILK
C:\WINDOWS\SYSTEM32\TZRES.DLL
C:\WINDOWS\GLOBALIZATION\SORTING\SORTDEFAULT.NLS
C:\VISUAL ST\VC\TOOLS\MSVC\14.29.30133\LIB\X86\MSVCPRTD.LIB
C:\VISUAL ST\VC\TOOLS\MSVC\14.29.30133\LIB\X86\MSVCRTD.LIB
C:\VISUAL ST\VC\TOOLS\MSVC\14.29.30133\LIB\X86\OLDNAMES.LIB
C:\VISUAL ST\VC\TOOLS\MSVC\14.29.30133\LIB\X86\MSVCRT.LIB
C:\VISUAL ST\VC\TOOLS\MSVC\14.29.30133\LIB\X86\LIBCMT.LIB
C:\VISUAL ST\VC\TOOLS\MSVC\14.29.30133\LIB\X86\VCRUNTIMED.LIB
D:\WINDOWS KITS\10\LIB\10.0.18362.0\UCRT\X86\UCRTD.LIB
C:\VISUAL ST\VC\TOOLS\MSVC\14.29.30133\BIN\HOSTX86\X86\MSPDBSRV.EXE
