^C:\USERS\MADMA\SOURCE\REPOS\OPENGL_LAB\OPENGL_LAB\SOURCE.CPP
C:\USERS\MADMA\SOURCE\REPOS\OPENGL_LAB\OPENGL_LAB\DEBUG\VC142.PDB
C:\USERS\MADMA\SOURCE\REPOS\OPENGL_LAB\OPENGL_LAB\DEBUG\VC142.IDB
^C:\USERS\MADMA\SOURCE\REPOS\OPENGL_GITPUSH\LAB3\OPENGL_LAB\SOURCE.CPP
C:\USERS\MADMA\SOURCE\REPOS\OPENGL_GITPUSH\LAB3\OPENGL_LAB\DEBUG\VC142.PDB
C:\USERS\MADMA\SOURCE\REPOS\OPENGL_GITPUSH\LAB3\OPENGL_LAB\DEBUG\VC142.IDB
C:\USERS\MADMA\SOURCE\REPOS\OPENGL_GITPUSH\LAB3\OPENGL_LAB\DEBUG\SOURCE.OBJ
