^C:\USERS\MADMA\SOURCE\REPOS\OPENGL_LAB\OPENGL_LAB\DEBUG\SOURCE.OBJ
/OUT:"C:\USERS\MADMA\SOURCE\REPOS\OPENGL_LAB\DEBUG\OPENGL_LAB.EXE" /INCREMENTAL /ILK:"DEBUG\OPENGL_LAB.ILK" /NOLOGO OPENGL32.LIB GLFW3.LIB GLEW32S.LIB KERNEL32.LIB USER32.LIB GDI32.LIB WINSPOOL.LIB COMDLG32.LIB ADVAPI32.LIB SHELL32.LIB OLE32.LIB OLEAUT32.LIB UUID.LIB ODBC32.LIB ODBCCP32.LIB /MANIFEST /MANIFESTUAC:"level='asInvoker' uiAccess='false'" /manifest:embed /DEBUG /PDB:"C:\USERS\MADMA\SOURCE\REPOS\OPENGL_LAB\DEBUG\OPENGL_LAB.PDB" /SUBSYSTEM:CONSOLE /TLBID:1 /DYNAMICBASE /NXCOMPAT /IMPLIB:"C:\USERS\MADMA\SOURCE\REPOS\OPENGL_LAB\DEBUG\OPENGL_LAB.LIB" /MACHINE:X86 DEBUG\SOURCE.OBJ
^C:\USERS\MADMA\SOURCE\REPOS\OPENGL_GITPUSH\LAB3\OPENGL_LAB\DEBUG\SOURCE.OBJ
/OUT:"C:\USERS\MADMA\SOURCE\REPOS\OPENGL_GITPUSH\LAB3\DEBUG\OPENGL_LAB.EXE" /INCREMENTAL /ILK:"DEBUG\OPENGL_LAB.ILK" /NOLOGO OPENGL32.LIB GLFW3.LIB GLEW32S.LIB SOIL.LIB KERNEL32.LIB USER32.LIB GDI32.LIB WINSPOOL.LIB COMDLG32.LIB ADVAPI32.LIB SHELL32.LIB OLE32.LIB OLEAUT32.LIB UUID.LIB ODBC32.LIB ODBCCP32.LIB /MANIFEST /MANIFESTUAC:"level='asInvoker' uiAccess='false'" /manifest:embed /DEBUG /PDB:"C:\USERS\MADMA\SOURCE\REPOS\OPENGL_GITPUSH\LAB3\DEBUG\OPENGL_LAB.PDB" /SUBSYSTEM:CONSOLE /TLBID:1 /DYNAMICBASE /NXCOMPAT /IMPLIB:"C:\USERS\MADMA\SOURCE\REPOS\OPENGL_GITPUSH\LAB3\DEBUG\OPENGL_LAB.LIB" /MACHINE:X86 DEBUG\SOURCE.OBJ
